{
  "$schema": "http://json-schema.org/draft-07/schema",
  "$id": "http://sat.qc.ca/scenic/spec.schema.json",
  "title": "Connection Specs",
  "description": "A specification file for each quiddity connections",
  "type": "object",
  "properties": {
    "label": {
      "description": "Unique label from the spec of a quiddity",
      "type": "string"
    },
    "description": {
      "description": "Description of the spec",
      "type": "string"
    },
    "can_do": {
      "description": "List of all compatible caps for connection",
      "type": "array",
      "items": {
        "type": "string"
      },
      "uniqueItems": true
    },
    "sfid":  {
      "description": "ID of the shmdata follower",
      "type": "number"
    },
    "swid": {
      "description": "ID of the shmdata writer",
      "type": "number"
    }
  },
  "required": [
    "label"
  ],
  "additionalProperties": true
}
